alu_main_trace.vcd
$date
     Jan 19, 2020       09:09:42
$end

$version
 SystemC 2.3.3-Accellera --- Jan 17 2020 14:28:49
$end

$timescale
     1 ns
$end

$scope module SystemC $end
$var wire    1  aaaaa  Clock       $end
$var wire    1  aaaab  Enable       $end
$var wire    8  aaaac  Data_In [7:0]  $end
$var wire    1  aaaad  Left_Right       $end
$var wire    3  aaaae  Shift_Amount [2:0]  $end
$var wire    8  aaaaf  Data_Out [7:0]  $end
$var wire    8  aaaag  A [7:0]  $end
$var wire    8  aaaah  B [7:0]  $end
$var wire    1  aaaai  OP       $end
$var wire    8  aaaaj  Result [7:0]  $end
$upscope $end
$enddefinitions  $end

$comment
All initial values are dumped below at time 0 sec = 0 timescale units.
$end

$dumpvars
1aaaaa
0aaaab
b10 aaaac
0aaaad
b1 aaaae
b10 aaaaf
b100 aaaag
b10 aaaah
0aaaai
b0 aaaaj
$end

#5
0aaaaa
b10 aaaaj

#10
1aaaaa
b1010 aaaac
b1010 aaaaf
b10 aaaag
b1010 aaaah
1aaaai

#15
0aaaaa
b1100 aaaaj

#20
1aaaaa
1aaaab
b10 aaaac
b10 aaaae
b1000 aaaaf
b1010 aaaag
b1000 aaaah
0aaaai

#25
0aaaaa
b10 aaaaj

#30
1aaaaa
1aaaad
b1 aaaae
b1 aaaaf
b1 aaaah

#35
0aaaaa
b1001 aaaaj

#40
1aaaaa
0aaaad
b10 aaaae
b1000 aaaaf
b1000 aaaah
1aaaai

#45
0aaaaa
b10010 aaaaj

#50
1aaaaa
b10000 aaaac
1aaaad
b100 aaaaf
b100 aaaah

#55
0aaaaa
b1110 aaaaj

